{
  "paragraphs": [
    {
      "text": "print(\"a\" + \"B\")",
      "user": "anonymous",
      "dateUpdated": "2018-08-22 13:40:33.111",
      "config": {
        "colWidth": 12.0,
        "fontSize": 9.0,
        "enabled": true,
        "results": {},
        "editorSetting": {
          "language": "python",
          "editOnDblClick": false,
          "completionSupport": true
        },
        "editorMode": "ace/mode/python"
      },
      "settings": {
        "params": {},
        "forms": {}
      },
      "results": {
        "code": "SUCCESS",
        "msg": [
          {
            "type": "TEXT",
            "data": "aB\n"
          }
        ]
      },
      "apps": [],
      "jobName": "paragraph_1534934427505_1771873095",
      "id": "20180822-134027_2069194949",
      "dateCreated": "2018-08-22 13:40:27.506",
      "dateStarted": "2018-08-22 13:40:33.170",
      "dateFinished": "2018-08-22 13:40:35.086",
      "status": "FINISHED",
      "progressUpdateIntervalMs": 500
    },
    {
      "user": "anonymous",
      "config": {},
      "settings": {
        "params": {},
        "forms": {}
      },
      "apps": [],
      "jobName": "paragraph_1534934433120_-591827007",
      "id": "20180822-134033_2075566597",
      "dateCreated": "2018-08-22 13:40:33.120",
      "status": "READY",
      "progressUpdateIntervalMs": 500
    }
  ],
  "name": "Test",
  "id": "2DNMXRAMA",
  "noteParams": {},
  "noteForms": {},
  "angularObjects": {
    "python:shared_process": []
  },
  "config": {
    "isZeppelinNotebookCronEnable": false
  },
  "info": {}
}